<?xml version="1.0" encoding="utf-8"?>
<!-- Generator: Adobe Illustrator 17.0.0, SVG Export Plug-In . SVG Version: 6.00 Build 0)  -->
<!DOCTYPE svg PUBLIC "-//W3C//DTD SVG 1.1//EN" "http://www.w3.org/Graphics/SVG/1.1/DTD/svg11.dtd">
<svg version="1.1" id="Layer_1" xmlns="http://www.w3.org/2000/svg" xmlns:xlink="http://www.w3.org/1999/xlink" x="0px" y="0px"
	 width="50px" height="77.22px" viewBox="0 0 50 77.22" enable-background="new 0 0 50 77.22" xml:space="preserve">
<path fill="#FFFFFF" d="M50,25C50,11.193,38.807,0,25,0S0,11.193,0,25c0,3.063,0.581,5.982,1.589,8.693l21.929,42.623
	c0.287,0.555,0.859,0.903,1.483,0.903s1.197-0.348,1.483-0.903l21.978-42.598C48.463,33.719,50,28.062,50,25z M25.002,71.911
	L4.564,32.298C3.744,30.014,3.271,27.566,3.266,25C3.291,13.006,12.997,3.3,25,3.275C37.003,3.3,46.709,12.998,46.726,25
	c-0.004,2.576-0.477,5.034-1.3,7.324L25.002,71.911z"/>
<g>
	<path fill="none" stroke="#FFFFFF" stroke-width="4" stroke-miterlimit="10" d="M25,12.167c-6.867,0-12.433,5.567-12.433,12.433
		c0,6.867,5.566,12.433,12.433,12.433S37.433,31.467,37.433,24.6C37.433,17.734,31.867,12.167,25,12.167L25,12.167z"/>
</g>
</svg>
