<?xml version="1.0" encoding="utf-8"?>
<!-- Generator: Adobe Illustrator 17.0.0, SVG Export Plug-In . SVG Version: 6.00 Build 0)  -->
<!DOCTYPE svg PUBLIC "-//W3C//DTD SVG 1.1//EN" "http://www.w3.org/Graphics/SVG/1.1/DTD/svg11.dtd">
<svg version="1.1" id="Layer_1" xmlns="http://www.w3.org/2000/svg" xmlns:xlink="http://www.w3.org/1999/xlink" x="0px" y="0px"
	 width="199.834px" height="200px" viewBox="0 0 199.834 200" enable-background="new 0 0 199.834 200" xml:space="preserve">
<path fill="#FFFFFF" d="M87.967,200C39.462,200,0,160.538,0,112.032C0,63.53,39.462,24.071,87.967,24.071
	c48.506,0,87.968,39.459,87.968,87.961C175.935,160.538,136.473,200,87.967,200z M87.967,31.922
	c-44.176,0-80.116,35.937-80.116,80.11c0,44.176,35.94,80.117,80.116,80.117s80.117-35.941,80.117-80.117
	C168.084,67.859,132.144,31.922,87.967,31.922z"/>
<path fill="#FFFFFF" d="M87.967,171.489c-32.783,0-59.455-26.671-59.455-59.455s26.671-59.455,59.455-59.455
	s59.455,26.671,59.455,59.455S120.751,171.489,87.967,171.489z M87.967,60.43c-28.455,0-51.604,23.149-51.604,51.604
	s23.149,51.604,51.604,51.604s51.604-23.149,51.604-51.604S116.422,60.43,87.967,60.43z"/>
<path fill="#FFFFFF" d="M87.967,140.947c-15.943,0-28.913-12.971-28.913-28.913c0-15.943,12.97-28.914,28.913-28.914
	c15.943,0,28.914,12.97,28.914,28.914C116.881,127.977,103.91,140.947,87.967,140.947z M87.967,90.972
	c-11.614,0-21.062,9.449-21.062,21.063s9.448,21.062,21.062,21.062s21.063-9.448,21.063-21.062S99.581,90.972,87.967,90.972z"/>
<rect x="129.847" y="4.284" transform="matrix(0.707 0.7072 -0.7072 0.707 86.0263 -75.1979)" fill="#FFFFFF" width="7.851" height="123.891"/>
<polygon fill="#FFFFFF" points="199.834,28.681 171.153,28.681 171.153,0 179.004,0 179.004,20.83 199.834,20.83 "/>
<polygon fill="#FFFFFF" points="184.615,43.901 155.934,43.901 155.934,15.219 163.785,15.219 163.785,36.05 184.615,36.05 "/>
</svg>
