<?xml version="1.0" encoding="utf-8"?>
<!-- Generator: Adobe Illustrator 17.0.0, SVG Export Plug-In . SVG Version: 6.00 Build 0)  -->
<!DOCTYPE svg PUBLIC "-//W3C//DTD SVG 1.1//EN" "http://www.w3.org/Graphics/SVG/1.1/DTD/svg11.dtd">
<svg version="1.1" id="Layer_1" xmlns="http://www.w3.org/2000/svg" xmlns:xlink="http://www.w3.org/1999/xlink" x="0px" y="0px"
	 width="100px" height="110.523px" viewBox="0 0 100 110.523" enable-background="new 0 0 100 110.523" xml:space="preserve">
<g>
	<path fill="#404040" d="M64.897,110.523c-0.429,0-0.859-0.109-1.246-0.327L33.857,93.339c-0.793-0.45-1.284-1.292-1.284-2.202
		V2.529c0-0.901,0.479-1.732,1.256-2.185c0.777-0.455,1.736-0.458,2.52-0.017l29.794,16.857c0.793,0.45,1.284,1.292,1.284,2.202
		v88.607c0,0.901-0.479,1.732-1.256,2.185C65.778,110.409,65.338,110.523,64.897,110.523z M37.633,89.662l24.734,13.995V20.861
		L37.633,6.867V89.662z"/>
	<path fill="#404040" d="M2.53,110.523c-0.457,0-0.912-0.124-1.315-0.369C0.46,109.696,0,108.877,0,107.994V19.387
		c0-0.945,0.527-1.811,1.367-2.247L33.94,0.283c0.787-0.403,1.722-0.374,2.478,0.087c0.755,0.458,1.215,1.277,1.215,2.16v88.607
		c0,0.945-0.527,1.811-1.367,2.247L3.693,110.241C3.327,110.429,2.928,110.523,2.53,110.523z M5.06,20.926v82.911l27.513-14.24
		V6.686L5.06,20.926z"/>
	<path fill="#404040" d="M64.897,110.523c-0.457,0-0.912-0.124-1.315-0.369c-0.755-0.458-1.215-1.277-1.215-2.16V19.387
		c0-0.945,0.527-1.811,1.367-2.247L96.307,0.283c0.786-0.403,1.721-0.374,2.478,0.087C99.54,0.827,100,1.646,100,2.529v88.607
		c0,0.945-0.527,1.811-1.367,2.247L66.06,110.241C65.694,110.429,65.295,110.523,64.897,110.523z M67.427,20.926v82.911
		l27.513-14.24V6.686L67.427,20.926z"/>
</g>
</svg>
